<?xml version="1.0" encoding="utf-8"?>
<!-- Generator: Adobe Illustrator 23.0.3, SVG Export Plug-In . SVG Version: 6.00 Build 0)  -->
<svg version="1.1" id="Layer_1" xmlns="http://www.w3.org/2000/svg" xmlns:xlink="http://www.w3.org/1999/xlink" x="0px" y="0px"
	 width="170px" height="30px" viewBox="0 0 170 30" style="enable-background:new 0 0 170 30;" xml:space="preserve">
<style type="text/css">
	.st0{fill-rule:evenodd;clip-rule:evenodd;}
</style>
<path class="st0" d="M152.6,12l5.3-5.7l0,0c0.3-0.4,0.5-0.7,0.5-1c0-0.4-0.4-0.6-1.5-0.6l0,0h-1.3V1.1H170v3.6h-1.9l0,0
	c-2.2,0-2.6,0.3-5.7,4.2l0,0l-8.4,9.2v5.6l0,0c0,1.4,0.7,1.9,2.8,1.9l0,0h3.2v3.5h-20.3v-3.5h3.2l0,0c2,0,2.8-0.5,2.8-1.9l0,0v-5.6
	l-9.9-11l0,0c-1.6-1.9-1.4-2.4-6-2.4l0,0V1.1h18.4v3.6h-1.3l0,0c-1.3,0-1.9,0.3-1.9,0.8c0,0.4,0.4,0.8,0.7,1.1l0,0l5,5.5l0,0
	C151.2,12.7,151.9,12.8,152.6,12L152.6,12L152.6,12L152.6,12z"/>
<path class="st0" d="M29.3,1.1h4.4v10.1h-4.1l0,0c-0.4-2-1.6-2.8-2.8-3.9c-2.1-1.9-6.5-3.5-10.2-3.5c-4.8,0-8.9,1.5-8.9,3.7
	c0,6.2,27.6,1.3,27.6,12.9c0,6.1-5.9,9.5-16.5,9.5c-3.7,0-9.2-1.2-12.5-2.9c-1-0.6-1.5,0.6-1.7,2l0,0H0.1V18.7h4.1l0,0
	c0.9,2.6,2.2,3.2,3.3,4.2c2,1.8,6.7,3.2,11.1,3.2c6.6-0.1,8.8-1.5,8.8-3.6s-2.2-2.6-9.4-3.7l0,0l-6.1-1l0,0C5,16.7,0,15.1,0,9.6
	c0-5.8,6.3-9.4,16.4-9.4c4.2,0,7.8,0.6,11.2,2.5C28.5,3.3,29.3,3.4,29.3,1.1L29.3,1.1L29.3,1.1L29.3,1.1z"/>
<path class="st0" d="M115.8,18l0.1-11.2l0,0c0-1.5-0.8-2-2.9-2l0,0h-2.5V1.3h16.2v3.5h-2.1l0,0c-2.2,0-2.9,0.5-2.9,2l0,0v22.6h-6.3
	L94.7,9.7v14.2l0,0c0,1.4,0.8,2,2.9,2l0,0h2.8v3.4H83.6v-3.4h2.8l0,0c2.2,0,2.9-0.5,2.9-2l0,0V6.8l0,0c0-1.5-0.8-2-2.9-2l0,0h-2.8
	V1.3h14.5L115.8,18L115.8,18L115.8,18z"/>
<path class="st0" d="M61.6,0c-12.9,0-21,5.8-21,15c0,9.1,8,14.8,20.6,14.8c13.4,0,21.2-5.6,21.2-15.3C82.4,5.9,74,0,61.6,0L61.6,0
	L61.6,0L61.6,0z M61.3,26.1c-7.1,0-11.2-4.2-11.2-11.3c0-7,4.3-11.2,11.6-11.2c7,0,11.1,4.2,11.1,11.5
	C72.8,22.1,68.6,26.1,61.3,26.1L61.3,26.1L61.3,26.1L61.3,26.1z"/>
</svg>
